{
	"type": "akj_worldgen:lerp",
	"value1": {
      "type": "minecraft:shifted_noise",
      "noise": "minecraft:vegetation",
      "xz_scale": 0.25,
      "y_scale": 0,
      "shift_x": "minecraft:shift_x",
      "shift_y": 0,
      "shift_z": "minecraft:shift_z"
    },
	"value2": -2,
	"alpha": {
		"type": "minecraft:spline",
		"spline": {
			"coordinate": {
				"type": "minecraft:square",
				"argument": {
					"type": "akj_worldgen:distance",
					"min": 0,
					"max": 10000
				}
			},
	      	"points": [
	        	{
	          		"location": 0,
	          		"derivative": 0,
	          		"value": 0
	        	},
	        	{
	          		"location": 1,
	          		"derivative": 0,
	          		"value": 1
	        	}
	      	]
		}
	}
}
